"Dataset","h0","h1","h2","h3","h4","h5","h6","n","runs","z","v","g","r","delta","K"
"../datas//int_fib41",0.959,0.593,0.366,0.366,0.226,0.226,0.226,267914296,204668312,41,4,76,4,3,1
"../datas//int_rs.13",1,0.788,0.681,0.524,0.205,0.186,0.186,216747218,165580142,52,40,132,77,3,1
"../datas//int_tm29",1,0.918,0.667,0.667,0.333,0.333,0.333,268435456,178956972,,43,154,82,3,1
"../datas//int_dblp.xml.00001.1",5.215,3.087,1.682,1,0.649,0.48,0.42,104857600,102213064,59573,59821,163444,172489,25955,10
"../datas//int_dblp.xml.00001.2",5.215,3.094,1.689,1.006,0.653,0.484,0.424,104857600,102211005,59556,61580,178910,175617,25955,10
"../datas//int_dblp.xml.0001.1",5.215,3.089,1.684,1.002,0.65,0.482,0.422,104857600,102212844,78167,83963,188072,240535,33969,11
"../datas//int_dblp.xml.0001.2",5.215,3.145,1.758,1.058,0.691,0.517,0.453,104857600,102199412,78158,100605,315596,270205,34062,11
"../datas//int_dna.001.1",1.997,1.942,1.93,1.925,1.916,1.905,1.88,104857600,74270754,308355,307329,521352,1716808,166014,14
"../datas//int_english.001.2",4.587,3.82,3.165,2.485,1.84,1.333,0.972,104857600,100064281,335815,489034,,1449519,171195,11
"../datas//int_proteins.001.1",4.184,4.169,4.133,3.8,2.04,0.39,0.066,104857600,96903513,355268,364093,631472,1278201,191766,6
"../datas//int_sources.001.2",5.5,4.099,2.932,1.949,1.341,0.974,0.733,104857600,98204153,294994,466643,1417680,1213428,142527,12
"../datas//int_Escherichia_Coli",2.001,1.983,1.964,1.952,1.944,1.938,1.932,112689515,83033890,2078512,2014012,4023314,15044486,1337977,15
"../datas//int_cere",2.192,1.81,1.806,1.802,1.801,1.8,1.797,461286644,301707444,1700630,1649448,5122218,11574640,1003280,15
"../datas//int_coreutils",5.465,4.096,2.868,1.907,1.355,1.026,0.807,205281778,186701039,1446468,1439918,,4684460,636101,13
"../datas//int_einstein.de.txt",5.039,3.588,2.606,1.668,1.063,0.715,0.489,92758441,88334965,34572,37721,,101370,16309,8
"../datas//int_einstein.en.txt",4.962,3.714,2.669,1.695,1.063,0.724,0.518,467626544,445780725,89467,97442,,290239,42884,10
"../datas//int_influenza",1.973,1.934,1.929,1.924,1.911,1.877,1.761,154808555,111688240,769286,768623,1285898,3022821,281857,73
"../datas//int_kernel",5.379,4.036,2.933,2.057,1.538,1.21,0.966,257961616,235583174,793915,794058,,2791368,405643,13
"../datas//int_para",2.125,1.878,1.874,1.87,1.868,1.867,1.864,429265758,291118143,2332657,2238362,6187066,15636739,1369096,15
"../datas//int_world_leaders",3.471,1.955,1.381,0.931,0.605,0.41,0.32,46968181,24143360,175740,179696,,573487,68651,9
"../datas//int_Android",5.508,3.933,2.4,1.313,0.862,0.632,0.509,104857600,99629494,1979226,1982376,,7298023,881571,58
"../datas//int_BGL",4.934,2.691,1.457,0.907,0.786,0.716,0.634,104857600,96244202,2988284,2954491,951718,14587098,1301165,43
"../datas//int_EDGAR",3.826,2.814,1.9,1.383,1.057,0.83,0.729,104857600,97387781,2775673,2747012,1597234,11442035,1116984,66
"../datas//int_HDFS_1",5.217,2.756,1.531,1.093,0.95,0.744,0.479,104857600,100369952,2513337,2536755,1407942,10606914,1173611,61
"../datas//int_Horspool",4.522,1.334,0.337,0.176,0.14,0.092,0.076,571839680,551307721,102970,98799,39810,988424,68686,6943
"../datas//int_NQueens",4.59,1.229,0.225,0.12,0.087,0.079,0.047,302590158,288586501,56660,55148,41870,317131,35744,6208
"../datas//int_Quicksort",4.591,1.296,0.332,0.122,0.113,0.094,0.084,381494534,370649643,90308,90594,35800,698999,56779,5001
"../datas//int_Thunderbird",5.159,3.511,2.002,1.107,0.77,0.642,0.514,104857600,98968878,2032339,2033192,888066,7226225,1048593,66
"../datas//int_Windows",5.17,2.96,1.08,0.5,0.297,0.223,0.196,104857600,93993180,176432,174407,,529211,61711,184
